{"level":30,"time":"2023-11-20T22:19:51.978Z","pid":4060,"hostname":"LAPTOP-9KNFIIKU","msg":"Listening on 51823"}
{"level":30,"time":"2023-11-20T22:19:52.263Z","pid":4060,"hostname":"LAPTOP-9KNFIIKU","msg":"Start of node method getBrowserCatalog"}
{"level":30,"time":"2023-11-20T22:19:52.263Z","pid":4060,"hostname":"LAPTOP-9KNFIIKU","msg":"End of node method getBrowserCatalog"}
{"level":30,"time":"2023-11-20T22:19:52.267Z","pid":4060,"hostname":"LAPTOP-9KNFIIKU","msg":"Start of node method getBrowserCatalog"}
{"level":30,"time":"2023-11-20T22:19:52.267Z","pid":4060,"hostname":"LAPTOP-9KNFIIKU","msg":"End of node method getBrowserCatalog"}
{"level":30,"time":"2023-11-20T22:19:52.273Z","pid":4060,"hostname":"LAPTOP-9KNFIIKU","msg":"Start of node method newBrowser"}
{"level":30,"time":"2023-11-20T22:19:59.870Z","pid":4060,"hostname":"LAPTOP-9KNFIIKU","msg":"End of node method newBrowser"}
{"level":30,"time":"2023-11-20T22:19:59.876Z","pid":4060,"hostname":"LAPTOP-9KNFIIKU","msg":"Start of node method newPage"}
{"level":30,"time":"2023-11-20T22:19:59.877Z","pid":4060,"hostname":"LAPTOP-9KNFIIKU","msg":"currentBrowser: [object Object]"}
{"level":30,"time":"2023-11-20T22:19:59.899Z","pid":4060,"hostname":"LAPTOP-9KNFIIKU","msg":"Changed active context"}
{"level":30,"time":"2023-11-20T22:20:00.373Z","pid":4060,"hostname":"LAPTOP-9KNFIIKU","msg":"Video path: undefined"}
{"level":30,"time":"2023-11-20T22:20:00.373Z","pid":4060,"hostname":"LAPTOP-9KNFIIKU","msg":"Changed active page"}
{"level":30,"time":"2023-11-20T22:20:02.154Z","pid":4060,"hostname":"LAPTOP-9KNFIIKU","msg":"End of node method newPage"}
{"level":30,"time":"2023-11-20T22:20:02.162Z","pid":4060,"hostname":"LAPTOP-9KNFIIKU","msg":"Start of node method click"}
{"level":30,"time":"2023-11-20T22:20:02.163Z","pid":4060,"hostname":"LAPTOP-9KNFIIKU","msg":"Strict mode is enabled, find Locator with xpath=//input[@id=\"login-button\"] in page."}
{"level":30,"time":"2023-11-20T22:20:02.277Z","pid":4060,"hostname":"LAPTOP-9KNFIIKU","msg":"End of node method click"}
{"level":30,"time":"2023-11-20T22:20:02.284Z","pid":4060,"hostname":"LAPTOP-9KNFIIKU","msg":"Start of node method getText"}
{"level":30,"time":"2023-11-20T22:20:02.284Z","pid":4060,"hostname":"LAPTOP-9KNFIIKU","msg":"Strict mode is enabled, find Locator with text=Epic sadface: Username is required in page."}
{"level":30,"time":"2023-11-20T22:20:02.331Z","pid":4060,"hostname":"LAPTOP-9KNFIIKU","msg":"Retrieved text for element text=Epic sadface: Username is required containing Epic sadface: Username is required"}
{"level":30,"time":"2023-11-20T22:20:02.331Z","pid":4060,"hostname":"LAPTOP-9KNFIIKU","msg":"End of node method getText"}
{"level":30,"time":"2023-11-20T22:20:02.339Z","pid":4060,"hostname":"LAPTOP-9KNFIIKU","msg":"Start of node method getBrowserCatalog"}
{"level":30,"time":"2023-11-20T22:20:02.342Z","pid":4060,"hostname":"LAPTOP-9KNFIIKU","msg":"End of node method getBrowserCatalog"}
{"level":30,"time":"2023-11-20T22:20:02.346Z","pid":4060,"hostname":"LAPTOP-9KNFIIKU","msg":"Start of node method getBrowserCatalog"}
{"level":30,"time":"2023-11-20T22:20:02.349Z","pid":4060,"hostname":"LAPTOP-9KNFIIKU","msg":"End of node method getBrowserCatalog"}
{"level":30,"time":"2023-11-20T22:20:02.353Z","pid":4060,"hostname":"LAPTOP-9KNFIIKU","msg":"Changed active context"}
{"level":30,"time":"2023-11-20T22:20:02.354Z","pid":4060,"hostname":"LAPTOP-9KNFIIKU","msg":"Changing current active page: page=81015747-4437-4d07-982c-76830b2f3b42"}
{"level":30,"time":"2023-11-20T22:20:02.354Z","pid":4060,"hostname":"LAPTOP-9KNFIIKU","msg":"Changed active page"}
{"level":30,"time":"2023-11-20T22:20:02.363Z","pid":4060,"hostname":"LAPTOP-9KNFIIKU","msg":"Start of node method getBrowserCatalog"}
{"level":30,"time":"2023-11-20T22:20:02.368Z","pid":4060,"hostname":"LAPTOP-9KNFIIKU","msg":"End of node method getBrowserCatalog"}
{"level":30,"time":"2023-11-20T22:20:02.374Z","pid":4060,"hostname":"LAPTOP-9KNFIIKU","msg":"Start of node method switchBrowser"}
{"level":30,"time":"2023-11-20T22:20:02.375Z","pid":4060,"hostname":"LAPTOP-9KNFIIKU","msg":"End of node method switchBrowser"}
{"level":30,"time":"2023-11-20T22:20:02.378Z","pid":4060,"hostname":"LAPTOP-9KNFIIKU","msg":"Start of node method switchBrowser"}
{"level":30,"time":"2023-11-20T22:20:02.379Z","pid":4060,"hostname":"LAPTOP-9KNFIIKU","msg":"End of node method switchBrowser"}
{"level":30,"time":"2023-11-20T22:20:02.385Z","pid":4060,"hostname":"LAPTOP-9KNFIIKU","msg":"Changing current active page: page=81015747-4437-4d07-982c-76830b2f3b42"}
{"level":30,"time":"2023-11-20T22:20:02.385Z","pid":4060,"hostname":"LAPTOP-9KNFIIKU","msg":"Changed active page"}
{"level":30,"time":"2023-11-20T22:20:02.391Z","pid":4060,"hostname":"LAPTOP-9KNFIIKU","msg":"Start of node method getBrowserCatalog"}
{"level":30,"time":"2023-11-20T22:20:02.392Z","pid":4060,"hostname":"LAPTOP-9KNFIIKU","msg":"End of node method getBrowserCatalog"}
{"level":30,"time":"2023-11-20T22:20:02.397Z","pid":4060,"hostname":"LAPTOP-9KNFIIKU","msg":"Changed active context"}
{"level":30,"time":"2023-11-20T22:20:02.397Z","pid":4060,"hostname":"LAPTOP-9KNFIIKU","msg":"Changing current active page: page=81015747-4437-4d07-982c-76830b2f3b42"}
{"level":30,"time":"2023-11-20T22:20:02.397Z","pid":4060,"hostname":"LAPTOP-9KNFIIKU","msg":"Changed active page"}
{"level":30,"time":"2023-11-20T22:20:02.401Z","pid":4060,"hostname":"LAPTOP-9KNFIIKU","msg":"Start of node method closeContext"}
{"level":30,"time":"2023-11-20T22:20:02.409Z","pid":4060,"hostname":"LAPTOP-9KNFIIKU","msg":"Removed page=2f92e735-f63f-477a-8e0b-49784b3ff218 from context=85348dea-8f7c-42b4-9657-03ba05db7942 page stack"}
{"level":30,"time":"2023-11-20T22:20:02.510Z","pid":4060,"hostname":"LAPTOP-9KNFIIKU","msg":"End of node method closeContext"}
{"level":30,"time":"2023-11-20T22:20:02.537Z","pid":4060,"hostname":"LAPTOP-9KNFIIKU","msg":"Start of node method getBrowserCatalog"}
{"level":30,"time":"2023-11-20T22:20:02.537Z","pid":4060,"hostname":"LAPTOP-9KNFIIKU","msg":"End of node method getBrowserCatalog"}
{"level":30,"time":"2023-11-20T22:20:02.657Z","pid":4060,"hostname":"LAPTOP-9KNFIIKU","msg":"Start of node method closeAllBrowsers"}
{"level":30,"time":"2023-11-20T22:20:08.457Z","pid":4060,"hostname":"LAPTOP-9KNFIIKU","msg":"End of node method closeAllBrowsers"}
